…
## Load data

Load the following data: + applications from `app_data_sample.parquet` +
edges from `edges_sample.csv`

``` r
# import data
data_path <- "/Users/jessica.song/Desktop/MG/!671 Talent Analytics/Excercise2/"
applications <- read_feather(paste0(data_path,"app_data_starter.feather"))

applications
```

    ## # A tibble: 2,018,477 × 21
    ##    application_number filing_date examiner_name_last examiner_name_first
    ##    <chr>              <date>      <chr>              <chr>              
    ##  1 08284457           2000-01-26  HOWARD             JACQUELINE         
    ##  2 08413193           2000-10-11  YILDIRIM           BEKIR              
    ##  3 08531853           2000-05-17  HAMILTON           CYNTHIA            
    ##  4 08637752           2001-07-20  MOSHER             MARY               
    ##  5 08682726           2000-04-10  BARR               MICHAEL            
    ##  6 08687412           2000-04-28  GRAY               LINDA              
    ##  7 08716371           2004-01-26  MCMILLIAN          KARA               
    ##  8 08765941           2000-06-23  FORD               VANESSA            
    ##  9 08776818           2000-02-04  STRZELECKA         TERESA             
    ## 10 08809677           2002-02-20  KIM                SUN                
    ## # ℹ 2,018,467 more rows
    ## # ℹ 17 more variables: examiner_name_middle <chr>, examiner_id <dbl>,
    ## #   examiner_art_unit <dbl>, uspc_class <chr>, uspc_subclass <chr>,
    ## #   patent_number <chr>, patent_issue_date <date>, abandon_date <date>,
    ## #   disposal_type <chr>, appl_status_code <dbl>, appl_status_date <chr>,
    ## #   tc <dbl>, gender <chr>, race <chr>, earliest_date <date>,
    ## #   latest_date <date>, tenure_days <dbl>
…
``` r
library(gender)
#install_genderdata_package() # only run this line the first time you use the package, to get data for it

# get a list of first names without repetitions
examiner_names <- applications %>% 
  distinct(examiner_name_first)

examiner_names
```

    ## # A tibble: 2,595 × 1
    ##    examiner_name_first
    ##    <chr>              
    ##  1 JACQUELINE         
    ##  2 BEKIR              
    ##  3 CYNTHIA            
    ##  4 MARY               
    ##  5 MICHAEL            
    ##  6 LINDA              
    ##  7 KARA               
    ##  8 VANESSA            
    ##  9 TERESA             
    ## 10 SUN                
    ## # ℹ 2,585 more rows
…
``` r
# get a table of names and gender
examiner_names_gender <- examiner_names %>% 
  do(results = gender(.$examiner_name_first, method = "ssa")) %>% 
  unnest(cols = c(results), keep_empty = TRUE) %>% 
  select(
    examiner_name_first = name,
    gender,
    proportion_female
  )

examiner_names_gender
```

    ## # A tibble: 1,822 × 3
    ##    examiner_name_first gender proportion_female
    ##    <chr>               <chr>              <dbl>
    ##  1 AARON               male              0.0082
    ##  2 ABDEL               male              0     
    ##  3 ABDOU               male              0     
    ##  4 ABDUL               male              0     
    ##  5 ABDULHAKIM          male              0     
    ##  6 ABDULLAH            male              0     
    ##  7 ABDULLAHI           male              0     
    ##  8 ABIGAIL             female            0.998 
    ##  9 ABIMBOLA            female            0.944 
    ## 10 ABRAHAM             male              0.0031
    ## # ℹ 1,812 more rows
…
We’ll now use package `wru` to estimate likely race of an examiner. Just
like with gender, we’ll get a list of unique names first, only now we
are using surnames.

``` r
library(wru)

examiner_surnames <- applications %>% 
  select(surname = examiner_name_last) %>% 
  distinct()

examiner_surnames
```

    ## # A tibble: 3,806 × 1
    ##    surname   
    ##    <chr>     
    ##  1 HOWARD    
    ##  2 YILDIRIM  
    ##  3 HAMILTON  
    ##  4 MOSHER    
    ##  5 BARR      
    ##  6 GRAY      
    ##  7 MCMILLIAN 
    ##  8 FORD      
    ##  9 STRZELECKA
    ## 10 KIM       
    ## # ℹ 3,796 more rows
…
    ## Warning: Unknown or uninitialised column: `state`.

    ## Proceeding with last name predictions...

    ## ℹ All local files already up-to-date!

    ## 701 (18.4%) individuals' last names were not matched.

``` r
examiner_race
```

    ## # A tibble: 3,806 × 6
    ##    surname    pred.whi pred.bla pred.his pred.asi pred.oth
    ##    <chr>         <dbl>    <dbl>    <dbl>    <dbl>    <dbl>
    ##  1 HOWARD       0.597   0.295    0.0275   0.00690   0.0741
    ##  2 YILDIRIM     0.807   0.0273   0.0694   0.0165    0.0798
    ##  3 HAMILTON     0.656   0.239    0.0286   0.00750   0.0692
    ##  4 MOSHER       0.915   0.00425  0.0291   0.00917   0.0427
    ##  5 BARR         0.784   0.120    0.0268   0.00830   0.0615
    ##  6 GRAY         0.640   0.252    0.0281   0.00748   0.0724
    ##  7 MCMILLIAN    0.322   0.554    0.0212   0.00340   0.0995
    ##  8 FORD         0.576   0.320    0.0275   0.00621   0.0697
    ##  9 STRZELECKA   0.472   0.171    0.220    0.0825    0.0543
    ## 10 KIM          0.0169  0.00282  0.00546  0.943     0.0319
    ## # ℹ 3,796 more rows
…
examiner_race
```

    ## # A tibble: 3,806 × 8
    ##    surname    pred.whi pred.bla pred.his pred.asi pred.oth max_race_p race 
    ##    <chr>         <dbl>    <dbl>    <dbl>    <dbl>    <dbl>      <dbl> <chr>
    ##  1 HOWARD       0.597   0.295    0.0275   0.00690   0.0741      0.597 white
    ##  2 YILDIRIM     0.807   0.0273   0.0694   0.0165    0.0798      0.807 white
    ##  3 HAMILTON     0.656   0.239    0.0286   0.00750   0.0692      0.656 white
    ##  4 MOSHER       0.915   0.00425  0.0291   0.00917   0.0427      0.915 white
    ##  5 BARR         0.784   0.120    0.0268   0.00830   0.0615      0.784 white
    ##  6 GRAY         0.640   0.252    0.0281   0.00748   0.0724      0.640 white
    ##  7 MCMILLIAN    0.322   0.554    0.0212   0.00340   0.0995      0.554 black
    ##  8 FORD         0.576   0.320    0.0275   0.00621   0.0697      0.576 white
    ##  9 STRZELECKA   0.472   0.171    0.220    0.0825    0.0543      0.472 white
    ## 10 KIM          0.0169  0.00282  0.00546  0.943     0.0319      0.943 Asian
    ## # ℹ 3,796 more rows
…
``` r
library(lubridate) # to work with dates

examiner_dates <- applications %>% 
  select(examiner_id, filing_date, appl_status_date) 

examiner_dates
```

    ## # A tibble: 2,018,477 × 3
    ##    examiner_id filing_date appl_status_date  
    ##          <dbl> <date>      <chr>             
    ##  1       96082 2000-01-26  30jan2003 00:00:00
    ##  2       87678 2000-10-11  27sep2010 00:00:00
    ##  3       63213 2000-05-17  30mar2009 00:00:00
    ##  4       73788 2001-07-20  07sep2009 00:00:00
    ##  5       77294 2000-04-10  19apr2001 00:00:00
    ##  6       68606 2000-04-28  16jul2001 00:00:00
    ##  7       89557 2004-01-26  15may2017 00:00:00
    ##  8       97543 2000-06-23  03apr2002 00:00:00
    ##  9       98714 2000-02-04  27nov2002 00:00:00
    ## 10       65530 2002-02-20  23mar2009 00:00:00
    ## # ℹ 2,018,467 more rows
…
``` r
examiner_dates <- examiner_dates %>% 
  group_by(examiner_id) %>% 
  summarise(
    earliest_date = min(start_date, na.rm = TRUE), 
    latest_date = max(end_date, na.rm = TRUE),
    tenure_days = interval(earliest_date, latest_date) %/% days(1)
    ) %>% 
  filter(year(latest_date)<2018)

examiner_dates
```

    ## # A tibble: 5,625 × 4
    ##    examiner_id earliest_date latest_date tenure_days
    ##          <dbl> <date>        <date>            <dbl>
    ##  1       59012 2004-07-28    2015-07-24         4013
    ##  2       59025 2009-10-26    2017-05-18         2761
    ##  3       59030 2005-12-12    2017-05-22         4179
    ##  4       59040 2007-09-11    2017-05-23         3542
    ##  5       59052 2001-08-21    2007-02-28         2017
    ##  6       59054 2000-11-10    2016-12-23         5887
    ##  7       59055 2004-11-02    2007-12-26         1149
    ##  8       59056 2000-03-24    2017-05-22         6268
    ##  9       59074 2000-01-31    2017-03-17         6255
    ## 10       59081 2011-04-21    2017-05-19         2220
    ## # ℹ 5,615 more rows
…
``` r
write_feather(applications, paste0(data_path,"app_data_starter_coded.feather"))
```

# Rest of the exercise

``` r
# import data
data_path <- "/Users/jessica.song/Desktop/MG/!671 Talent Analytics/Excercise2/"
applications1 <- read_feather(paste0(data_path,"app_data_starter_coded.feather"))

applications1
```

    ## # A tibble: 2,018,477 × 26
    ##    application_number filing_date examiner_name_last examiner_name_first
    ##    <chr>              <date>      <chr>              <chr>              
    ##  1 08284457           2000-01-26  HOWARD             JACQUELINE         
    ##  2 08413193           2000-10-11  YILDIRIM           BEKIR              
    ##  3 08531853           2000-05-17  HAMILTON           CYNTHIA            
    ##  4 08637752           2001-07-20  MOSHER             MARY               
    ##  5 08682726           2000-04-10  BARR               MICHAEL            
    ##  6 08687412           2000-04-28  GRAY               LINDA              
    ##  7 08716371           2004-01-26  MCMILLIAN          KARA               
    ##  8 08765941           2000-06-23  FORD               VANESSA            
    ##  9 08776818           2000-02-04  STRZELECKA         TERESA             
    ## 10 08809677           2002-02-20  KIM                SUN                
    ## # ℹ 2,018,467 more rows
    ## # ℹ 22 more variables: examiner_name_middle <chr>, examiner_id <dbl>,
    ## #   examiner_art_unit <dbl>, uspc_class <chr>, uspc_subclass <chr>,
    ## #   patent_number <chr>, patent_issue_date <date>, abandon_date <date>,
    ## #   disposal_type <chr>, appl_status_code <dbl>, appl_status_date <chr>,
    ## #   tc <dbl>, gender.x <chr>, race.x <chr>, earliest_date.x <date>,
    ## #   latest_date.x <date>, tenure_days.x <dbl>, gender.y <chr>, race.y <chr>, …

…

``` r
# Create quarter columns
applications1$filing_quarter <- paste(year(applications1$filing_date), quarter(applications1$filing_date), sep="-Q")
applications1$abandon_quarter <- paste(year(applications1$abandon_date), quarter(applications1$abandon_date), sep="-Q")
applications1$issue_quarter <- paste(year(applications1$patent_issue_date), quarter(applications1$patent_issue_date), sep="-Q")

applications1
```

    ## # A tibble: 2,018,477 × 29
    ##    application_number filing_date examiner_name_last examiner_name_first
    ##    <chr>              <date>      <chr>              <chr>              
    ##  1 08284457           2000-01-26  HOWARD             JACQUELINE         
    ##  2 08413193           2000-10-11  YILDIRIM           BEKIR              
    ##  3 08531853           2000-05-17  HAMILTON           CYNTHIA            
    ##  4 08637752           2001-07-20  MOSHER             MARY               
    ##  5 08682726           2000-04-10  BARR               MICHAEL            
    ##  6 08687412           2000-04-28  GRAY               LINDA              
    ##  7 08716371           2004-01-26  MCMILLIAN          KARA               
    ##  8 08765941           2000-06-23  FORD               VANESSA            
    ##  9 08776818           2000-02-04  STRZELECKA         TERESA             
    ## 10 08809677           2002-02-20  KIM                SUN                
    ## # ℹ 2,018,467 more rows
    ## # ℹ 25 more variables: examiner_name_middle <chr>, examiner_id <dbl>,
    ## #   examiner_art_unit <dbl>, uspc_class <chr>, uspc_subclass <chr>,
    ## #   patent_number <chr>, patent_issue_date <date>, abandon_date <date>,
    ## #   disposal_type <chr>, appl_status_code <dbl>, appl_status_date <chr>,
    ## #   tc <dbl>, gender.x <chr>, race.x <chr>, earliest_date.x <date>,
    ## #   latest_date.x <date>, tenure_days.x <dbl>, gender.y <chr>, race.y <chr>, …
…
aggregated_data <- left_join(aggregated_data, in_process_data, by = c("examiner_id", "filing_quarter"))

# Replace NA with 0 for counts
aggregated_data[is.na(aggregated_data)] <- 0

library(dplyr)

# Rename the column name of "filing_quarter"
aggregated_data <- aggregated_data %>%
  rename(analysis_quarter = filing_quarter)

aggregated_data
```

    ## # A tibble: 190,881 × 6
    ##    examiner_id analysis_quarter new_applications abandoned_applications
    ##          <dbl> <chr>                       <int>                  <int>
    ##  1       59012 2004-Q3                         1                      0
    ##  2       59012 2006-Q1                         1                      0
    ##  3       59012 2006-Q2                         4                      0
    ##  4       59012 2006-Q3                         5                      0
    ##  5       59012 2006-Q4                         9                      0
    ##  6       59012 2007-Q1                         9                      0
    ##  7       59012 2007-Q2                        16                      0
    ##  8       59012 2007-Q3                        11                      0
    ##  9       59012 2007-Q4                        10                      0
    ## 10       59012 2008-Q1                        11                      0
    ## # ℹ 190,871 more rows
    ## # ℹ 2 more variables: allowed_applications <int>, in_process_applications <int>
…
# Find the latest appl_status_date for each examiner_id and extract examiner_art_unit
latest_art_unit <- applications1 %>%
  group_by(examiner_id) %>%
  filter(appl_status_date == max(appl_status_date, na.rm = TRUE)) %>%
  summarise(current_art_unit = first(examiner_art_unit), .groups = "drop")

# Add current_art_unit column to applications1
applications1 <- left_join(applications1, latest_art_unit, by = "examiner_id")

applications1
```

    ## # A tibble: 2,018,477 × 31
    ##    application_number filing_date examiner_name_last examiner_name_first
    ##    <chr>              <date>      <chr>              <chr>              
    ##  1 08284457           2000-01-26  HOWARD             JACQUELINE         
    ##  2 08413193           2000-10-11  YILDIRIM           BEKIR              
    ##  3 08531853           2000-05-17  HAMILTON           CYNTHIA            
    ##  4 08637752           2001-07-20  MOSHER             MARY               
    ##  5 08682726           2000-04-10  BARR               MICHAEL            
    ##  6 08687412           2000-04-28  GRAY               LINDA              
    ##  7 08716371           2004-01-26  MCMILLIAN          KARA               
    ##  8 08765941           2000-06-23  FORD               VANESSA            
    ##  9 08776818           2000-02-04  STRZELECKA         TERESA             
    ## 10 08809677           2002-02-20  KIM                SUN                
    ## # ℹ 2,018,467 more rows
    ## # ℹ 27 more variables: examiner_name_middle <chr>, examiner_id <dbl>,
    ## #   examiner_art_unit <dbl>, uspc_class <chr>, uspc_subclass <chr>,
    ## #   patent_number <chr>, patent_issue_date <date>, abandon_date <date>,
    ## #   disposal_type <chr>, appl_status_code <dbl>, appl_status_date <dttm>,
    ## #   tc <dbl>, gender.x <chr>, race.x <chr>, earliest_date.x <date>,
    ## #   latest_date.x <date>, tenure_days.x <dbl>, gender.y <chr>, race.y <chr>, …
…
    ## `summarise()` has grouped output by 'current_art_unit'. You can override using
    ## the `.groups` argument.

``` r
# View the results
print(people_in_art_unit)
```

    ## # A tibble: 285 × 2
    ##    current_art_unit number_of_people
    ##               <dbl>            <int>
    ##  1             1600                1
    ##  2             1609                2
    ##  3             1611               21
    ##  4             1612               23
    ##  5             1613               15
    ##  6             1614               17
    ##  7             1615               40
    ##  8             1616               29
    ##  9             1617               32
    ## 10             1618               17
    ## # ℹ 275 more rows

``` r
print(women_in_art_unit)
```

    ## # A tibble: 271 × 2
    ##    current_art_unit number_of_women
    ##               <dbl>           <int>
    ##  1             1600               1
    ##  2             1609               1
    ##  3             1611              12
    ##  4             1612              10
    ##  5             1613               6
    ##  6             1614               6
    ##  7             1615              16
    ##  8             1616              12
    ##  9             1617              12
    ## 10             1618               6
    ## # ℹ 261 more rows

``` r
print(examiners_by_race_in_art_unit)
```

    ## # A tibble: 853 × 3
    ##    current_art_unit race.y   number_of_examiners
    ##               <dbl> <chr>                  <int>
    ##  1             1600 white                      1
    ##  2             1609 white                      2
    ##  3             1611 Asian                      1
    ##  4             1611 Hispanic                   2
    ##  5             1611 white                     18
    ##  6             1612 Asian                      5
    ##  7             1612 black                      1
    ##  8             1612 white                     17
    ##  9             1613 Asian                      5
    ## 10             1613 Hispanic                   1
    ## # ℹ 843 more rows
…
# Get the examiner_ids that have separation_indicator as FALSE (meaning they had activity in "2017-Q2")
active_examiner_ids <- data_2017_Q2 %>%
  filter(separation_indicator == FALSE) %>%
  pull(examiner_id)

# Update the separation_indicator in the original aggregated_data
# Set separation_indicator to FALSE for examiners who had activity in "2017-Q2"
aggregated_data$separation_indicator[aggregated_data$examiner_id %in% active_examiner_ids] <- FALSE

# View the updated dataset
print(aggregated_data)
```

    ## # A tibble: 190,881 × 7
    ##    examiner_id analysis_quarter new_applications abandoned_applications
    ##          <dbl> <chr>                       <int>                  <int>
    ##  1       59012 2004-Q3                         1                      0
    ##  2       59012 2006-Q1                         1                      0
    ##  3       59012 2006-Q2                         4                      0
    ##  4       59012 2006-Q3                         5                      0
    ##  5       59012 2006-Q4                         9                      0
    ##  6       59012 2007-Q1                         9                      0
    ##  7       59012 2007-Q2                        16                      0
    ##  8       59012 2007-Q3                        11                      0
    ##  9       59012 2007-Q4                        10                      0
    ## 10       59012 2008-Q1                        11                      0
    ## # ℹ 190,871 more rows
    ## # ℹ 3 more variables: allowed_applications <int>,
    ## #   in_process_applications <int>, separation_indicator <lgl>
…
